../amazon-freertos/freertos/queue.c:255:12:xQueueGenericReset	24	static
../amazon-freertos/freertos/queue.c:368:16:xQueueGenericCreate	48	static
../amazon-freertos/freertos/queue.c:429:13:prvInitialiseNewQueue	24	static
../amazon-freertos/freertos/queue.c:473:14:prvInitialiseMutex	16	static
../amazon-freertos/freertos/queue.c:503:16:xQueueCreateMutex	32	static
../amazon-freertos/freertos/queue.c:596:13:xQueueGiveMutexRecursive	40	static
../amazon-freertos/freertos/queue.c:651:13:xQueueTakeMutexRecursive	40	static
../amazon-freertos/freertos/queue.c:721:16:xQueueCreateCountingSemaphore	32	static
../amazon-freertos/freertos/queue.c:747:12:xQueueGenericSend	64	static
../amazon-freertos/freertos/queue.c:957:12:xQueueGenericSendFromISR	64	static
../amazon-freertos/freertos/queue.c:1108:12:xQueueGiveFromISR	64	static
../amazon-freertos/freertos/queue.c:1273:12:xQueueReceive	56	static
../amazon-freertos/freertos/queue.c:1414:12:xQueueSemaphoreTake	64	static
../amazon-freertos/freertos/queue.c:1634:12:xQueuePeek	64	static
../amazon-freertos/freertos/queue.c:1783:12:xQueueReceiveFromISR	64	static
../amazon-freertos/freertos/queue.c:1874:12:xQueuePeekFromISR	56	static
../amazon-freertos/freertos/queue.c:1928:13:uxQueueMessagesWaiting	24	static
../amazon-freertos/freertos/queue.c:1944:13:uxQueueSpacesAvailable	32	static
../amazon-freertos/freertos/queue.c:1961:13:uxQueueMessagesWaitingFromISR	32	static
../amazon-freertos/freertos/queue.c:1973:6:vQueueDelete	24	static
../amazon-freertos/freertos/queue.c:2017:14:uxQueueGetQueueNumber	16	static
../amazon-freertos/freertos/queue.c:2027:7:vQueueSetQueueNumber	16	static
../amazon-freertos/freertos/queue.c:2037:10:ucQueueGetQueueType	16	static
../amazon-freertos/freertos/queue.c:2047:21:prvGetDisinheritPriorityAfterTimeout	24	static
../amazon-freertos/freertos/queue.c:2072:19:prvCopyDataToQueue	32	static
../amazon-freertos/freertos/queue.c:2151:13:prvCopyDataFromQueue	16	static
../amazon-freertos/freertos/queue.c:2169:13:prvUnlockQueue	24	static
../amazon-freertos/freertos/queue.c:2289:19:prvIsQueueEmpty	24	static
../amazon-freertos/freertos/queue.c:2310:12:xQueueIsQueueEmptyFromISR	32	static
../amazon-freertos/freertos/queue.c:2329:19:prvIsQueueFull	24	static
../amazon-freertos/freertos/queue.c:2350:12:xQueueIsQueueFullFromISR	32	static
../amazon-freertos/freertos/queue.c:2646:7:vQueueAddToRegistry	24	static
../amazon-freertos/freertos/queue.c:2675:14:pcQueueGetName	24	static
../amazon-freertos/freertos/queue.c:2703:7:vQueueUnregisterQueue	24	static
../amazon-freertos/freertos/queue.c:2735:7:vQueueWaitForMessageRestricted	32	static
